{
    "task_id": 1,
    "task_status": "pending",
    "endpoint_id": 1,
    "name": "My Task",
    "creator": {
       "user_id": 2,
       "name": "Max Mustermann",
       "email_address": "max@mail.com"
    },
    "creation_date": "2018-12-15T09:24:16.843251+00:00",
    "accesses": [
       {
          "group": "test",
          "user": {
             "user_id": 4,
             "name": "John Doe",
             "email_address": "john@mail.com"
          },
          "access_status": "signed",
          "event_date": "2018-12-16T13:17:47.028780+00:00",
          "access_order": 0
       },
       {
          "group": null,
          "user": {
             "user_id": 4,
             "name": "John Doe",
             "email_address": "john@mail.com"
          },
          "access_status": "pending",
          "event_date": null,
          "access_order": 1
       }
 
    ],
    "tasks_fields": [
       {
          "field": {
             "field_id": 2,
             "field_type": "textfield"
          },
          "value": "text"
       }
    ],
    "can_sign": "False",
    "signature_type": "checkbox",
    "sequential_status": true
 }