{
   "groups":[
      {
         "group_id": 555555,
         "name": "CEO",
         "description": "CEO"
      },
      {
         "group_id": 111111,
         "name": "CFO",
         "description": null
      }
   ]
}