{  
   "users":[  
      {  
         "user_id": 444444,
         "name": "John Doe",
         "email_address": "johndoe@mail.com"
      },
      {  
         "user_id": 111111,
         "name": "Jane Doe",
         "email_address": "janedoe@mail.com"
      }
   ]
}