{
   "name": "Special Endpoint",
   "email_notification_status": true,
   "deletable_status": false,
   "sequential_status": true,
   "signature_type": "buttonAfterDownload",
   "allow_additional_accesses_status": true,
   "additional_access_insert_before_status": true,
   "given_accesses": [
      {
         "group_id": 5,
         "access_order": 0
      },
      {
         "user_id": 1,
         "group_id": null,
         "access_order": 1
      }
   ],
   "fields": [
      {
         "field_type": "checkbox",
         "name": "name",
         "required_status": false
      },
      {
         "field_type": "textfield",
         "name": "name"
      },
      {
         "field_type": "file",
         "name": "field_file",
         "required_status": true
      }
   ],
   "description": "description"
}