{
   "endpoint_id": 1,
   "name": "Special Endpoint",
   "instantiable_status": true,
   "email_notification_status": true,
   "deletable_status": false,
   "sequential_status": true,
   "signature_type": "buttonAfterDownload",
   "allow_additional_accesses_status": true,
   "additional_access_insert_before_status": true,
   "given_accesses": [
      {
         "group": {
            "group_id": 5,
            "name": "CEO"
         },
         "user": null,
         "access_order": 0
      },
      {
         "group": null,
         "user": {
            "user_id": 1,
            "name": "John Doe",
            "email_address": "john@mail.com"
         },
         "access_order": 1
      }
   ],
   "fields": [
      {
         "field_id": 1,
         "field_type": "checkbox",
         "name": "name",
         "required_status": false
      },
      {
         "field_id": 2,
         "field_type": "textfield",
         "name": "name",
         "required_status": true
      },
      {
         "field_id": 3,
         "field_type": "file",
         "name": "field_file",
         "required_status": true
      }
   ],
   "active_tasks": 4,
   "description": "description"
}