{
    "endpoints": [
        {
            "endpoint_id": 1,
            "name": "Special Endpoint",
            "instantiable_status": true,
            "email_notification_status": true,
            "deletable_status": false,
            "sequential_status": true,
            "additional_access_insert_before_status": true,
            "signature_type": "buttonAfterDownload",
            "allow_additional_accesses_status": true,
            "given_accesses": [
                {
                    "group": {
                        "id": 5,
                        "name": "CEO"
                    },
                    "user": null,
                    "access_order": 0
                },
                {
                    "group": null,
                    "user": {
                        "id": 1,
                        "name": "John Doe",
                        "description": "description"
                    },
                    "access_order": 1
                }
            ],
            "fields": [
                {
                   "field_id": 1,
                   "field_type": "checkbox",
                   "name": "name",
                   "required_status": false
                },
                {
                   "field_id": 2,
                   "field_type": "textfield",
                   "name": "name",
                   "required_status": false
                },
                {
                   "field_id": 3,
                   "field_type": "file",
                   "name": "field_file",
                   "required_status": true
                }
             ],
            "active_tasks": 4,
            "description": "description"
        }
    ],
    "previous": "https://example.com/endpoints/?page=1&limit=20",
    "next": "https://example.com/endpoints/?page=3&limit=20"
}